<svg id="outdoor_grill-24" xmlns="http://www.w3.org/2000/svg" width="24" height="24" viewBox="0 0 24 24">
  <g id="outdoor_grill">
    <rect id="Rectangle" width="24" height="24" fill="none"/>
    <g id="Group" transform="translate(5 2)">
      <path id="Shape" d="M9.18,11.99H2.84l-1,1.55A1,1,0,1,1,.17,12.45L4.12,6.37A6.984,6.984,0,0,1,0,0H14A6.992,6.992,0,0,1,9.89,6.37l.6.93a3.912,3.912,0,0,0-1.6,1.21L7.87,6.94A6.274,6.274,0,0,1,7,7a6.286,6.286,0,0,1-.87-.06L4.14,10H9.18a3.006,3.006,0,1,1,0,1.99Z" transform="translate(0 6)" fill="#425e70"/>
      <path id="Path" d="M1.411,5h1a2.909,2.909,0,0,0-.89-2.96c-.42-.5-.68-.77-.46-2.04H.071a3.143,3.143,0,0,0,.89,2.96A1.8,1.8,0,0,1,1.411,5Z" transform="translate(2.999)" fill="#425e70"/>
      <path id="Path-2" data-name="Path" d="M1.411,5h1a2.909,2.909,0,0,0-.89-2.96c-.42-.5-.68-.78-.46-2.04H.071a3.143,3.143,0,0,0,.89,2.96C1.191,3.2,1.761,3.63,1.411,5Z" transform="translate(5.479)" fill="#425e70"/>
      <path id="Path-3" data-name="Path" d="M1.411,5h1a2.909,2.909,0,0,0-.89-2.96c-.42-.5-.68-.77-.46-2.04H.071a3.143,3.143,0,0,0,.89,2.96A1.8,1.8,0,0,1,1.411,5Z" transform="translate(7.999)" fill="#425e70"/>
    </g>
  </g>
</svg>
